{
  "basePath" : "${rest.testPhotos.basepath}",
  "paths" : {
    "/photos" : {
      "x-WM-BASE_PATH" : "/photos",
      "x-WM-TAG" : "RestServiceVirtualController",
      "x-WM-RELATIVE_PATH" : "",
      "get" : {
        "x-WM-METHOD_NAME" : "invoke",
        "x-WM-ACCESS_SPECIFIER" : "APP_ONLY",
        "produces" : [ "application/json" ],
        "operationId" : "testPhotos_RestServiceVirtualController-invoke",
        "responses" : {
          "200" : {
            "schema" : {
              "x-WM-IS_LIST" : true,
              "type" : "array",
              "items" : {
                "$ref" : "#/definitions/RootResponseROOTEntryItem"
              }
            },
            "description" : "Success"
          }
        },
        "tags" : [ "RestServiceVirtualController" ],
        "consumes" : [ "application/json" ]
      },
      "x-WM-COMPLETE_PATH" : "${rest.testPhotos.scheme}://${rest.testPhotos.host}${rest.testPhotos.basepath}/photos"
    }
  },
  "host" : "${rest.testPhotos.host}",
  "schemes" : [ "${rest.testPhotos.scheme}" ],
  "definitions" : {
    "RootResponseROOTEntryItem" : {
      "x-WM-FULLY_QUALIFIED_NAME" : "testPhotos.RootResponseROOTEntryItem",
      "x-WM-TAGS" : [ "RestServiceVirtualController" ],
      "required" : [ "albumId", "id", "thumbnailUrl", "title", "url" ],
      "properties" : {
        "albumId" : {
          "format" : "int32",
          "type" : "integer"
        },
        "id" : {
          "format" : "int32",
          "type" : "integer"
        },
        "title" : {
          "type" : "string"
        },
        "url" : {
          "type" : "string"
        },
        "thumbnailUrl" : {
          "type" : "string"
        }
      }
    },
    "RootResponse" : {
      "x-WM-FULLY_QUALIFIED_NAME" : "testPhotos.RootResponse",
      "x-WM-TAGS" : [ "RestServiceVirtualController" ],
      "required" : [ "RootResponseROOT" ],
      "properties" : {
        "RootResponseROOT" : {
          "x-WM-IS_LIST" : true,
          "type" : "array",
          "items" : {
            "$ref" : "#/definitions/RootResponseROOTEntryItem"
          }
        }
      }
    }
  },
  "swagger" : "2.0",
  "info" : {
    "x-WM-USE_PROXY_FOR_WEB" : false,
    "x-WM-USE_PROXY_FOR_MOBILE" : false,
    "x-WM-API_ID" : "79e0c09e-0acd-46eb-aa85-e57826a16a35",
    "x-WM-SERVICE_ID" : "typicode",
    "version" : "2.0",
    "x-WM-SERVICE_TYPE" : "RestService"
  },
  "tags" : [ {
    "name" : "RestServiceVirtualController",
    "description" : "Rest service swagger documentation"
  } ]
}