{
  "swagger" : "2.0",
  "info" : {
    "version" : "2.0",
    "x-WM-USE_PROXY_FOR_WEB" : false,
    "x-WM-USE_PROXY_FOR_MOBILE" : false,
    "x-WM-API_ID" : "cd896855-ca52-419c-9500-5585d031a6fa",
    "x-WM-SERVICE_ID" : "typicode",
    "x-WM-SERVICE_TYPE" : "RestService"
  },
  "host" : "jsonplaceholder.typicode.com",
  "basePath" : "",
  "tags" : [ {
    "name" : "RestServiceVirtualController",
    "description" : "Rest service swagger documentation"
  } ],
  "schemes" : [ "https" ],
  "paths" : {
    "/userList/invoke/users" : {
      "get" : {
        "tags" : [ "RestServiceVirtualController" ],
        "operationId" : "userList_RestServiceVirtualController-invoke",
        "consumes" : [ "application/json" ],
        "produces" : [ "application/json" ],
        "responses" : {
          "200" : {
            "description" : "Success",
            "schema" : {
              "type" : "array",
              "items" : {
                "$ref" : "#/definitions/RootResponseROOTEntryItem"
              },
              "x-WM-IS_LIST" : true
            }
          }
        },
        "x-WM-METHOD_NAME" : "invoke",
        "x-WM-ACCESS_SPECIFIER" : "APP_ONLY"
      },
      "x-WM-BASE_PATH" : "/userList/invoke/users",
      "x-WM-TAG" : "RestServiceVirtualController",
      "x-WM-RELATIVE_PATH" : "",
      "x-WM-COMPLETE_PATH" : "${rest.userList.scheme}://${rest.userList.host}${rest.userList.basepath}/users"
    }
  },
  "definitions" : {
    "geo" : {
      "required" : [ "lat", "lng" ],
      "properties" : {
        "lng" : {
          "type" : "string"
        },
        "lat" : {
          "type" : "string"
        }
      },
      "x-WM-FULLY_QUALIFIED_NAME" : "userList.geo",
      "x-WM-TAGS" : [ "RestServiceVirtualController" ]
    },
    "address" : {
      "required" : [ "city", "geo", "street", "suite", "zipcode" ],
      "properties" : {
        "zipcode" : {
          "type" : "string"
        },
        "geo" : {
          "$ref" : "#/definitions/geo"
        },
        "suite" : {
          "type" : "string"
        },
        "city" : {
          "type" : "string"
        },
        "street" : {
          "type" : "string"
        }
      },
      "x-WM-FULLY_QUALIFIED_NAME" : "userList.address",
      "x-WM-TAGS" : [ "RestServiceVirtualController" ]
    },
    "company" : {
      "required" : [ "bs", "catchPhrase", "name" ],
      "properties" : {
        "bs" : {
          "type" : "string"
        },
        "catchPhrase" : {
          "type" : "string"
        },
        "name" : {
          "type" : "string"
        }
      },
      "x-WM-FULLY_QUALIFIED_NAME" : "userList.company",
      "x-WM-TAGS" : [ "RestServiceVirtualController" ]
    },
    "RootResponseROOTEntryItem" : {
      "required" : [ "address", "company", "email", "id", "name", "phone", "username", "website" ],
      "properties" : {
        "website" : {
          "type" : "string"
        },
        "address" : {
          "$ref" : "#/definitions/address"
        },
        "phone" : {
          "type" : "string"
        },
        "name" : {
          "type" : "string"
        },
        "company" : {
          "$ref" : "#/definitions/company"
        },
        "id" : {
          "type" : "integer",
          "format" : "int32"
        },
        "email" : {
          "type" : "string"
        },
        "username" : {
          "type" : "string"
        }
      },
      "x-WM-FULLY_QUALIFIED_NAME" : "userList.RootResponseROOTEntryItem",
      "x-WM-TAGS" : [ "RestServiceVirtualController" ]
    },
    "RootResponse" : {
      "required" : [ "RootResponseROOT" ],
      "properties" : {
        "RootResponseROOT" : {
          "type" : "array",
          "items" : {
            "$ref" : "#/definitions/RootResponseROOTEntryItem"
          },
          "x-WM-IS_LIST" : true
        }
      },
      "x-WM-FULLY_QUALIFIED_NAME" : "userList.RootResponse",
      "x-WM-TAGS" : [ "RestServiceVirtualController" ]
    }
  }
}