{
  "swagger" : "2.0",
  "info" : {
    "version" : "2.0",
    "x-WM-USE_PROXY_FOR_WEB" : false,
    "x-WM-USE_PROXY_FOR_MOBILE" : false,
    "x-WM-API_ID" : "79e0c09e-0acd-46eb-aa85-e57826a16a35",
    "x-WM-SERVICE_ID" : "typicode",
    "x-WM-SERVICE_TYPE" : "RestService"
  },
  "host" : "jsonplaceholder.typicode.com",
  "basePath" : "",
  "tags" : [ {
    "name" : "RestServiceVirtualController",
    "description" : "Rest service swagger documentation"
  } ],
  "schemes" : [ "https" ],
  "paths" : {
    "/testPhotos/invoke/photos" : {
      "get" : {
        "tags" : [ "RestServiceVirtualController" ],
        "operationId" : "testPhotos_RestServiceVirtualController-invoke",
        "consumes" : [ "application/json" ],
        "produces" : [ "application/json" ],
        "responses" : {
          "200" : {
            "description" : "Success",
            "schema" : {
              "type" : "array",
              "items" : {
                "$ref" : "#/definitions/RootResponseROOTEntryItem"
              },
              "x-WM-IS_LIST" : true
            }
          }
        },
        "x-WM-METHOD_NAME" : "invoke",
        "x-WM-ACCESS_SPECIFIER" : "APP_ONLY"
      },
      "x-WM-BASE_PATH" : "/testPhotos/invoke/photos",
      "x-WM-TAG" : "RestServiceVirtualController",
      "x-WM-RELATIVE_PATH" : "",
      "x-WM-COMPLETE_PATH" : "${rest.testPhotos.scheme}://${rest.testPhotos.host}${rest.testPhotos.basepath}/photos"
    }
  },
  "definitions" : {
    "RootResponseROOTEntryItem" : {
      "required" : [ "albumId", "id", "thumbnailUrl", "title", "url" ],
      "properties" : {
        "albumId" : {
          "type" : "integer",
          "format" : "int32"
        },
        "id" : {
          "type" : "integer",
          "format" : "int32"
        },
        "title" : {
          "type" : "string"
        },
        "url" : {
          "type" : "string"
        },
        "thumbnailUrl" : {
          "type" : "string"
        }
      },
      "x-WM-FULLY_QUALIFIED_NAME" : "testPhotos.RootResponseROOTEntryItem",
      "x-WM-TAGS" : [ "RestServiceVirtualController" ]
    },
    "RootResponse" : {
      "required" : [ "RootResponseROOT" ],
      "properties" : {
        "RootResponseROOT" : {
          "type" : "array",
          "items" : {
            "$ref" : "#/definitions/RootResponseROOTEntryItem"
          },
          "x-WM-IS_LIST" : true
        }
      },
      "x-WM-FULLY_QUALIFIED_NAME" : "testPhotos.RootResponse",
      "x-WM-TAGS" : [ "RestServiceVirtualController" ]
    }
  }
}